EESchema Schematic File Version 2
LIBS:power
LIBS:device
LIBS:transistors
LIBS:conn
LIBS:linear
LIBS:regul
LIBS:74xx
LIBS:cmos4000
LIBS:adc-dac
LIBS:memory
LIBS:xilinx
LIBS:microcontrollers
LIBS:dsp
LIBS:microchip
LIBS:analog_switches
LIBS:motorola
LIBS:texas
LIBS:intel
LIBS:audio
LIBS:interface
LIBS:digital-audio
LIBS:philips
LIBS:display
LIBS:cypress
LIBS:siliconi
LIBS:opto
LIBS:atmel
LIBS:contrib
LIBS:valves
LIBS:is31fl3236-tqls2
LIBS:atmega32u4-au_BRC
LIBS:brc-cache
EELAYER 25 0
EELAYER END
$Descr A2 23386 16535
encoding utf-8
Sheet 1 1
Title ""
Date ""
Rev ""
Comp ""
Comment1 ""
Comment2 ""
Comment3 ""
Comment4 ""
$EndDescr
$Comp
L Led_Small D1
U 1 1 57015D39
P 3750 5250
F 0 "D1" H 3700 5375 50  0000 L CNN
F 1 "Led" H 3575 5150 50  0000 L CNN
F 2 "SMD_Packages:SMD-1206_Pol" V 3750 5250 50  0001 C CNN
F 3 "" V 3750 5250 50  0000 C CNN
	1    3750 5250
	-1   0    0    -1  
$EndComp
$Comp
L Led_Small D2
U 1 1 57016F1F
P 3750 5550
F 0 "D2" H 3700 5675 50  0000 L CNN
F 1 "Led" H 3575 5450 50  0000 L CNN
F 2 "SMD_Packages:SMD-1206_Pol" V 3750 5550 50  0001 C CNN
F 3 "" V 3750 5550 50  0000 C CNN
	1    3750 5550
	-1   0    0    -1  
$EndComp
$Comp
L Led_Small D3
U 1 1 570170A4
P 3750 5850
F 0 "D3" H 3700 5975 50  0000 L CNN
F 1 "Led" H 3575 5750 50  0000 L CNN
F 2 "SMD_Packages:SMD-1206_Pol" V 3750 5850 50  0001 C CNN
F 3 "" V 3750 5850 50  0000 C CNN
	1    3750 5850
	-1   0    0    -1  
$EndComp
$Comp
L Led_Small D4
U 1 1 570170AA
P 3750 6350
F 0 "D4" H 3700 6475 50  0000 L CNN
F 1 "Led" H 3575 6250 50  0000 L CNN
F 2 "SMD_Packages:SMD-1206_Pol" V 3750 6350 50  0001 C CNN
F 3 "" V 3750 6350 50  0000 C CNN
	1    3750 6350
	-1   0    0    -1  
$EndComp
$Comp
L Led_Small D5
U 1 1 570171CC
P 3750 6650
F 0 "D5" H 3700 6775 50  0000 L CNN
F 1 "Led" H 3575 6550 50  0000 L CNN
F 2 "SMD_Packages:SMD-1206_Pol" V 3750 6650 50  0001 C CNN
F 3 "" V 3750 6650 50  0000 C CNN
	1    3750 6650
	-1   0    0    -1  
$EndComp
$Comp
L Led_Small D6
U 1 1 570171D2
P 3750 6950
F 0 "D6" H 3700 7075 50  0000 L CNN
F 1 "Led" H 3575 6850 50  0000 L CNN
F 2 "SMD_Packages:SMD-1206_Pol" V 3750 6950 50  0001 C CNN
F 3 "" V 3750 6950 50  0000 C CNN
	1    3750 6950
	-1   0    0    -1  
$EndComp
$Comp
L Led_Small D7
U 1 1 570171D8
P 3750 7550
F 0 "D7" H 3700 7675 50  0000 L CNN
F 1 "Led" H 3575 7450 50  0000 L CNN
F 2 "SMD_Packages:SMD-1206_Pol" V 3750 7550 50  0001 C CNN
F 3 "" V 3750 7550 50  0000 C CNN
	1    3750 7550
	-1   0    0    -1  
$EndComp
$Comp
L Led_Small D8
U 1 1 570171DE
P 3750 7850
F 0 "D8" H 3700 7975 50  0000 L CNN
F 1 "Led" H 3575 7750 50  0000 L CNN
F 2 "SMD_Packages:SMD-1206_Pol" V 3750 7850 50  0001 C CNN
F 3 "" V 3750 7850 50  0000 C CNN
	1    3750 7850
	-1   0    0    -1  
$EndComp
$Comp
L Led_Small D10
U 1 1 5701736C
P 3750 9750
F 0 "D10" H 3700 9875 50  0000 L CNN
F 1 "Led" H 3575 9650 50  0000 L CNN
F 2 "SMD_Packages:SMD-1206_Pol" V 3750 9750 50  0001 C CNN
F 3 "" V 3750 9750 50  0000 C CNN
	1    3750 9750
	0    -1   1    0   
$EndComp
$Comp
L Led_Small D11
U 1 1 57017372
P 4050 9750
F 0 "D11" H 4000 9875 50  0000 L CNN
F 1 "Led" H 3875 9650 50  0000 L CNN
F 2 "SMD_Packages:SMD-1206_Pol" V 4050 9750 50  0001 C CNN
F 3 "" V 4050 9750 50  0000 C CNN
	1    4050 9750
	0    -1   1    0   
$EndComp
$Comp
L Led_Small D12
U 1 1 57017378
P 4350 9750
F 0 "D12" H 4300 9875 50  0000 L CNN
F 1 "Led" H 4175 9650 50  0000 L CNN
F 2 "SMD_Packages:SMD-1206_Pol" V 4350 9750 50  0001 C CNN
F 3 "" V 4350 9750 50  0000 C CNN
	1    4350 9750
	0    -1   1    0   
$EndComp
$Comp
L Led_Small D13
U 1 1 5701737E
P 5100 9700
F 0 "D13" H 5050 9825 50  0000 L CNN
F 1 "Led" H 4925 9600 50  0000 L CNN
F 2 "SMD_Packages:SMD-1206_Pol" V 5100 9700 50  0001 C CNN
F 3 "" V 5100 9700 50  0000 C CNN
	1    5100 9700
	0    -1   1    0   
$EndComp
$Comp
L Led_Small D14
U 1 1 57017384
P 5400 9700
F 0 "D14" H 5350 9825 50  0000 L CNN
F 1 "Led" H 5225 9600 50  0000 L CNN
F 2 "SMD_Packages:SMD-1206_Pol" V 5400 9700 50  0001 C CNN
F 3 "" V 5400 9700 50  0000 C CNN
	1    5400 9700
	0    -1   1    0   
$EndComp
$Comp
L Led_Small D15
U 1 1 5701738A
P 5700 9700
F 0 "D15" H 5650 9825 50  0000 L CNN
F 1 "Led" H 5525 9600 50  0000 L CNN
F 2 "SMD_Packages:SMD-1206_Pol" V 5700 9700 50  0001 C CNN
F 3 "" V 5700 9700 50  0000 C CNN
	1    5700 9700
	0    -1   1    0   
$EndComp
$Comp
L Led_Small D16
U 1 1 57017390
P 6300 9800
F 0 "D16" H 6250 9925 50  0000 L CNN
F 1 "Led" H 6125 9700 50  0000 L CNN
F 2 "SMD_Packages:SMD-1206_Pol" V 6300 9800 50  0001 C CNN
F 3 "" V 6300 9800 50  0000 C CNN
	1    6300 9800
	0    -1   1    0   
$EndComp
$Comp
L Led_Small D17
U 1 1 57017396
P 6600 9800
F 0 "D17" H 6550 9925 50  0000 L CNN
F 1 "Led" H 6425 9700 50  0000 L CNN
F 2 "SMD_Packages:SMD-1206_Pol" V 6600 9800 50  0001 C CNN
F 3 "" V 6600 9800 50  0000 C CNN
	1    6600 9800
	0    -1   1    0   
$EndComp
$Comp
L Led_Small D25
U 1 1 57017678
P 10650 7700
F 0 "D25" H 10600 7825 50  0000 L CNN
F 1 "Led" H 10475 7600 50  0000 L CNN
F 2 "SMD_Packages:SMD-1206_Pol" V 10650 7700 50  0001 C CNN
F 3 "" V 10650 7700 50  0000 C CNN
	1    10650 7700
	1    0    0    1   
$EndComp
$Comp
L Led_Small D18
U 1 1 57017753
P 6900 9800
F 0 "D18" H 6850 9925 50  0000 L CNN
F 1 "Led" H 6725 9700 50  0000 L CNN
F 2 "SMD_Packages:SMD-1206_Pol" V 6900 9800 50  0001 C CNN
F 3 "" V 6900 9800 50  0000 C CNN
	1    6900 9800
	0    -1   1    0   
$EndComp
$Comp
L Led_Small D9
U 1 1 57017759
P 3750 8150
F 0 "D9" H 3700 8275 50  0000 L CNN
F 1 "Led" H 3575 8050 50  0000 L CNN
F 2 "SMD_Packages:SMD-1206_Pol" V 3750 8150 50  0001 C CNN
F 3 "" V 3750 8150 50  0000 C CNN
	1    3750 8150
	-1   0    0    -1  
$EndComp
$Comp
L Led_Small D24
U 1 1 57017672
P 9750 8300
F 0 "D24" H 9700 8425 50  0000 L CNN
F 1 "Led" H 9575 8200 50  0000 L CNN
F 2 "SMD_Packages:SMD-1206_Pol" V 9750 8300 50  0001 C CNN
F 3 "" V 9750 8300 50  0000 C CNN
	1    9750 8300
	1    0    0    1   
$EndComp
$Comp
L Led_Small D23
U 1 1 5701766C
P 9750 8600
F 0 "D23" H 9700 8725 50  0000 L CNN
F 1 "Led" H 9575 8500 50  0000 L CNN
F 2 "SMD_Packages:SMD-1206_Pol" V 9750 8600 50  0001 C CNN
F 3 "" V 9750 8600 50  0000 C CNN
	1    9750 8600
	1    0    0    1   
$EndComp
$Comp
L Led_Small D22
U 1 1 57017666
P 9750 8900
F 0 "D22" H 9700 9025 50  0000 L CNN
F 1 "Led" H 9575 8800 50  0000 L CNN
F 2 "SMD_Packages:SMD-1206_Pol" V 9750 8900 50  0001 C CNN
F 3 "" V 9750 8900 50  0000 C CNN
	1    9750 8900
	1    0    0    1   
$EndComp
$Comp
L Led_Small D21
U 1 1 57017660
P 8000 9700
F 0 "D21" H 7950 9825 50  0000 L CNN
F 1 "Led" H 7825 9600 50  0000 L CNN
F 2 "SMD_Packages:SMD-1206_Pol" V 8000 9700 50  0001 C CNN
F 3 "" V 8000 9700 50  0000 C CNN
	1    8000 9700
	0    -1   1    0   
$EndComp
$Comp
L Led_Small D20
U 1 1 5701765A
P 7700 9700
F 0 "D20" H 7650 9825 50  0000 L CNN
F 1 "Led" H 7525 9600 50  0000 L CNN
F 2 "SMD_Packages:SMD-1206_Pol" V 7700 9700 50  0001 C CNN
F 3 "" V 7700 9700 50  0000 C CNN
	1    7700 9700
	0    -1   1    0   
$EndComp
$Comp
L Led_Small D19
U 1 1 57017654
P 7400 9700
F 0 "D19" H 7350 9825 50  0000 L CNN
F 1 "Led" H 7225 9600 50  0000 L CNN
F 2 "SMD_Packages:SMD-1206_Pol" V 7400 9700 50  0001 C CNN
F 3 "" V 7400 9700 50  0000 C CNN
	1    7400 9700
	0    -1   1    0   
$EndComp
$Comp
L VCC #PWR01
U 1 1 5701924C
P 3500 5550
F 0 "#PWR01" H 3500 5400 50  0001 C CNN
F 1 "VCC" H 3500 5700 50  0000 C CNN
F 2 "" H 3500 5550 50  0000 C CNN
F 3 "" H 3500 5550 50  0000 C CNN
	1    3500 5550
	0    -1   1    0   
$EndComp
$Comp
L VCC #PWR02
U 1 1 5701942C
P 3500 6650
F 0 "#PWR02" H 3500 6500 50  0001 C CNN
F 1 "VCC" H 3500 6800 50  0000 C CNN
F 2 "" H 3500 6650 50  0000 C CNN
F 3 "" H 3500 6650 50  0000 C CNN
	1    3500 6650
	0    -1   1    0   
$EndComp
$Comp
L VCC #PWR03
U 1 1 570194FA
P 3500 7850
F 0 "#PWR03" H 3500 7700 50  0001 C CNN
F 1 "VCC" H 3500 8000 50  0000 C CNN
F 2 "" H 3500 7850 50  0000 C CNN
F 3 "" H 3500 7850 50  0000 C CNN
	1    3500 7850
	0    -1   1    0   
$EndComp
$Comp
L VCC #PWR04
U 1 1 5701955C
P 4050 10000
F 0 "#PWR04" H 4050 9850 50  0001 C CNN
F 1 "VCC" H 4050 10150 50  0000 C CNN
F 2 "" H 4050 10000 50  0000 C CNN
F 3 "" H 4050 10000 50  0000 C CNN
	1    4050 10000
	1    0    0    1   
$EndComp
$Comp
L VCC #PWR05
U 1 1 570195BE
P 5400 9950
F 0 "#PWR05" H 5400 9800 50  0001 C CNN
F 1 "VCC" H 5400 10100 50  0000 C CNN
F 2 "" H 5400 9950 50  0000 C CNN
F 3 "" H 5400 9950 50  0000 C CNN
	1    5400 9950
	1    0    0    1   
$EndComp
$Comp
L VCC #PWR06
U 1 1 57019605
P 6600 10050
F 0 "#PWR06" H 6600 9900 50  0001 C CNN
F 1 "VCC" H 6600 10200 50  0000 C CNN
F 2 "" H 6600 10050 50  0000 C CNN
F 3 "" H 6600 10050 50  0000 C CNN
	1    6600 10050
	1    0    0    1   
$EndComp
$Comp
L VCC #PWR07
U 1 1 57019667
P 7700 9950
F 0 "#PWR07" H 7700 9800 50  0001 C CNN
F 1 "VCC" H 7700 10100 50  0000 C CNN
F 2 "" H 7700 9950 50  0000 C CNN
F 3 "" H 7700 9950 50  0000 C CNN
	1    7700 9950
	1    0    0    1   
$EndComp
$Comp
L VCC #PWR08
U 1 1 570196AE
P 10000 8600
F 0 "#PWR08" H 10000 8450 50  0001 C CNN
F 1 "VCC" H 10000 8750 50  0000 C CNN
F 2 "" H 10000 8600 50  0000 C CNN
F 3 "" H 10000 8600 50  0000 C CNN
	1    10000 8600
	0    1    -1   0   
$EndComp
$Comp
L VCC #PWR09
U 1 1 5701992D
P 10900 7700
F 0 "#PWR09" H 10900 7550 50  0001 C CNN
F 1 "VCC" H 10900 7850 50  0000 C CNN
F 2 "" H 10900 7700 50  0000 C CNN
F 3 "" H 10900 7700 50  0000 C CNN
	1    10900 7700
	0    1    -1   0   
$EndComp
$Comp
L IS31FL3236-TQLS2 U1
U 1 1 5701B2CE
P 6550 7850
F 0 "U1" H 4800 9900 50  0000 C CNN
F 1 "IS31FL3236-TQLS2" H 6550 8350 50  0000 C CNN
F 2 "Housings_QFP:TQFP-48-1EP_7x7mm_Pitch0.5mm" H 6500 8650 50  0000 C CIN
F 3 "" H 6550 8100 50  0000 C CNN
	1    6550 7850
	1    0    0    -1  
$EndComp
$Comp
L GND #PWR010
U 1 1 5701C639
P 5800 4800
F 0 "#PWR010" H 5800 4550 50  0001 C CNN
F 1 "GND" H 5800 4650 50  0000 C CNN
F 2 "" H 5800 4800 50  0000 C CNN
F 3 "" H 5800 4800 50  0000 C CNN
	1    5800 4800
	-1   0    0    1   
$EndComp
$Comp
L R R2
U 1 1 5701CA8D
P 5800 5550
F 0 "R2" V 5880 5550 50  0000 C CNN
F 1 "3k3" V 5800 5550 50  0000 C CNN
F 2 "Resistors_SMD:R_0603" V 5730 5550 50  0001 C CNN
F 3 "" H 5800 5550 50  0000 C CNN
	1    5800 5550
	1    0    0    -1  
$EndComp
$Comp
L GND #PWR011
U 1 1 5701CC5A
P 5800 5300
F 0 "#PWR011" H 5800 5050 50  0001 C CNN
F 1 "GND" H 5800 5150 50  0000 C CNN
F 2 "" H 5800 5300 50  0000 C CNN
F 3 "" H 5800 5300 50  0000 C CNN
	1    5800 5300
	-1   0    0    1   
$EndComp
$Comp
L GND #PWR012
U 1 1 5701CFF4
P 6400 5600
F 0 "#PWR012" H 6400 5350 50  0001 C CNN
F 1 "GND" H 6400 5450 50  0000 C CNN
F 2 "" H 6400 5600 50  0000 C CNN
F 3 "" H 6400 5600 50  0000 C CNN
	1    6400 5600
	-1   0    0    1   
$EndComp
$Comp
L VCC #PWR013
U 1 1 5701D18A
P 6450 4850
F 0 "#PWR013" H 6450 4700 50  0001 C CNN
F 1 "VCC" H 6450 5000 50  0000 C CNN
F 2 "" H 6450 4850 50  0000 C CNN
F 3 "" H 6450 4850 50  0000 C CNN
	1    6450 4850
	-1   0    0    -1  
$EndComp
$Comp
L C C1
U 1 1 5701D3E4
P 6100 4900
F 0 "C1" H 6125 5000 50  0000 L CNN
F 1 "1uF" H 6125 4800 50  0000 L CNN
F 2 "Capacitors_SMD:C_0805" H 6138 4750 50  0001 C CNN
F 3 "" H 6100 4900 50  0000 C CNN
	1    6100 4900
	0    1    1    0   
$EndComp
$Comp
L C C2
U 1 1 5701D547
P 6100 5150
F 0 "C2" H 6125 5250 50  0000 L CNN
F 1 "0.1uF" H 6125 5050 50  0000 L CNN
F 2 "Capacitors_SMD:C_0603" H 6138 5000 50  0001 C CNN
F 3 "" H 6100 5150 50  0000 C CNN
	1    6100 5150
	0    1    1    0   
$EndComp
$Comp
L GND #PWR014
U 1 1 5701E25E
P 8700 6650
F 0 "#PWR014" H 8700 6400 50  0001 C CNN
F 1 "GND" H 8700 6500 50  0000 C CNN
F 2 "" H 8700 6650 50  0000 C CNN
F 3 "" H 8700 6650 50  0000 C CNN
	1    8700 6650
	0    -1   -1   0   
$EndComp
$Comp
L GND #PWR015
U 1 1 5701E51B
P 6250 8700
F 0 "#PWR015" H 6250 8450 50  0001 C CNN
F 1 "GND" H 6250 8550 50  0000 C CNN
F 2 "" H 6250 8700 50  0000 C CNN
F 3 "" H 6250 8700 50  0000 C CNN
	1    6250 8700
	1    0    0    -1  
$EndComp
$Comp
L GND #PWR016
U 1 1 5701E7C7
P 4450 6850
F 0 "#PWR016" H 4450 6600 50  0001 C CNN
F 1 "GND" H 4450 6700 50  0000 C CNN
F 2 "" H 4450 6850 50  0000 C CNN
F 3 "" H 4450 6850 50  0000 C CNN
	1    4450 6850
	0    1    1    0   
$EndComp
$Comp
L R R4
U 1 1 5701EB2B
P 6750 5150
F 0 "R4" V 6830 5150 50  0000 C CNN
F 1 "100k" V 6750 5150 50  0000 C CNN
F 2 "Resistors_SMD:R_0603" V 6680 5150 50  0001 C CNN
F 3 "" H 6750 5150 50  0000 C CNN
	1    6750 5150
	0    1    1    0   
$EndComp
$Comp
L GND #PWR017
U 1 1 5701ED82
P 7000 5150
F 0 "#PWR017" H 7000 4900 50  0001 C CNN
F 1 "GND" H 7000 5000 50  0000 C CNN
F 2 "" H 7000 5150 50  0000 C CNN
F 3 "" H 7000 5150 50  0000 C CNN
	1    7000 5150
	0    -1   -1   0   
$EndComp
$Comp
L R R3
U 1 1 5701F1CA
P 5850 4400
F 0 "R3" V 5930 4400 50  0000 C CNN
F 1 "4k7" V 5850 4400 50  0000 C CNN
F 2 "Resistors_SMD:R_0603" V 5780 4400 50  0001 C CNN
F 3 "" H 5850 4400 50  0000 C CNN
	1    5850 4400
	0    1    1    0   
$EndComp
$Comp
L R R1
U 1 1 5701F26F
P 5300 4400
F 0 "R1" V 5380 4400 50  0000 C CNN
F 1 "4k7" V 5300 4400 50  0000 C CNN
F 2 "Resistors_SMD:R_0603" V 5230 4400 50  0001 C CNN
F 3 "" H 5300 4400 50  0000 C CNN
	1    5300 4400
	0    1    1    0   
$EndComp
Wire Wire Line
	3500 5550 3650 5550
Wire Wire Line
	3650 5250 3550 5250
Wire Wire Line
	3550 5250 3550 5850
Connection ~ 3550 5550
Wire Wire Line
	3550 5850 3650 5850
Wire Wire Line
	3500 6650 3650 6650
Wire Wire Line
	3650 6350 3550 6350
Wire Wire Line
	3550 6350 3550 6950
Connection ~ 3550 6650
Wire Wire Line
	3550 6950 3650 6950
Wire Wire Line
	3500 7850 3650 7850
Wire Wire Line
	3650 7550 3550 7550
Wire Wire Line
	3550 7550 3550 8150
Connection ~ 3550 7850
Wire Wire Line
	3550 8150 3650 8150
Wire Wire Line
	4050 10000 4050 9850
Wire Wire Line
	3750 9850 3750 9950
Wire Wire Line
	3750 9950 4350 9950
Connection ~ 4050 9950
Wire Wire Line
	4350 9950 4350 9850
Wire Wire Line
	5400 9950 5400 9800
Wire Wire Line
	5100 9800 5100 9900
Wire Wire Line
	5100 9900 5700 9900
Connection ~ 5400 9900
Wire Wire Line
	5700 9900 5700 9800
Wire Wire Line
	6600 10050 6600 9900
Wire Wire Line
	6300 9900 6300 10000
Wire Wire Line
	6300 10000 6900 10000
Connection ~ 6600 10000
Wire Wire Line
	6900 10000 6900 9900
Wire Wire Line
	7700 9950 7700 9800
Wire Wire Line
	7400 9800 7400 9900
Wire Wire Line
	7400 9900 8000 9900
Connection ~ 7700 9900
Wire Wire Line
	8000 9900 8000 9800
Wire Wire Line
	10000 8600 9850 8600
Wire Wire Line
	9850 8900 9950 8900
Wire Wire Line
	9950 8900 9950 8300
Connection ~ 9950 8600
Wire Wire Line
	9950 8300 9850 8300
Wire Wire Line
	10750 7700 10900 7700
Wire Wire Line
	4050 8500 4050 9650
Wire Wire Line
	4350 7900 4350 9650
Wire Wire Line
	4650 6400 4650 5850
Wire Wire Line
	4650 5850 3850 5850
Wire Wire Line
	5200 5550 5200 5800
Wire Wire Line
	5200 5550 3850 5550
Wire Wire Line
	3850 5250 5350 5250
Wire Wire Line
	5350 5250 5350 5800
Wire Wire Line
	4650 6550 4500 6550
Wire Wire Line
	4500 6550 4500 6350
Wire Wire Line
	4500 6350 3850 6350
Wire Wire Line
	3850 6650 3900 6650
Wire Wire Line
	3900 6650 3900 6700
Wire Wire Line
	3900 6700 4650 6700
Wire Wire Line
	3850 6950 4100 6950
Wire Wire Line
	4100 6950 4100 7000
Wire Wire Line
	4100 7000 4650 7000
Wire Wire Line
	4650 7150 4100 7150
Wire Wire Line
	4100 7150 4100 7550
Wire Wire Line
	4100 7550 3850 7550
Wire Wire Line
	4650 7300 4150 7300
Wire Wire Line
	4150 7300 4150 7850
Wire Wire Line
	4150 7850 3850 7850
Wire Wire Line
	4650 7450 4200 7450
Wire Wire Line
	4200 7450 4200 8150
Wire Wire Line
	4200 8150 3850 8150
Wire Wire Line
	4650 7600 4250 7600
Wire Wire Line
	4250 7600 4250 8450
Wire Wire Line
	4250 8450 3750 8450
Wire Wire Line
	3750 8450 3750 9650
Wire Wire Line
	4050 8500 4300 8500
Wire Wire Line
	4300 8500 4300 7750
Wire Wire Line
	4300 7750 4650 7750
Wire Wire Line
	4350 7900 4650 7900
Wire Wire Line
	5100 9600 5100 8500
Wire Wire Line
	5100 8500 4650 8500
Wire Wire Line
	4650 8500 4650 8050
Wire Wire Line
	5400 9600 5400 8550
Wire Wire Line
	5400 8550 5450 8550
Wire Wire Line
	5600 8550 5600 9600
Wire Wire Line
	5600 9600 5700 9600
Wire Wire Line
	6300 9700 6300 9450
Wire Wire Line
	6300 9450 5750 9450
Wire Wire Line
	5750 9450 5750 8550
Wire Wire Line
	5900 8550 5900 9400
Wire Wire Line
	5900 9400 6600 9400
Wire Wire Line
	6600 9400 6600 9700
Wire Wire Line
	6050 8550 6050 9350
Wire Wire Line
	6050 9350 6900 9350
Wire Wire Line
	6900 9350 6900 9700
Wire Wire Line
	7400 9300 7400 9600
Wire Wire Line
	7400 9300 6500 9300
Wire Wire Line
	6500 9300 6500 8550
Wire Wire Line
	7700 9600 7700 9250
Wire Wire Line
	7700 9250 6650 9250
Wire Wire Line
	6650 9250 6650 8550
Wire Wire Line
	8000 9600 8000 9200
Wire Wire Line
	8000 9200 6800 9200
Wire Wire Line
	6800 9200 6800 8550
Wire Wire Line
	9650 8900 6950 8900
Wire Wire Line
	6950 8900 6950 8550
Wire Wire Line
	7100 8550 7100 8800
Wire Wire Line
	9650 8300 9650 7850
Wire Wire Line
	9650 7850 8450 7850
Wire Wire Line
	10550 7700 8450 7700
Wire Wire Line
	5950 5800 5950 5700
Wire Wire Line
	5950 5700 6100 5700
Wire Wire Line
	6100 5700 6100 5800
Connection ~ 6050 5700
Wire Wire Line
	5800 5800 5800 5700
Wire Wire Line
	5800 5300 5800 5400
Wire Wire Line
	6400 5800 6400 5600
Wire Wire Line
	6250 4900 6250 5800
Connection ~ 6250 5150
Wire Wire Line
	6250 4900 6450 4900
Wire Wire Line
	6450 4900 6450 4850
Wire Wire Line
	5950 4900 5950 5550
Connection ~ 5950 5150
Wire Wire Line
	5950 4900 5800 4900
Wire Wire Line
	5800 4900 5800 4800
Wire Wire Line
	5950 5550 6050 5550
Wire Wire Line
	6050 5550 6050 5700
Wire Wire Line
	6550 3150 6550 5800
Wire Wire Line
	8450 6650 8700 6650
Wire Wire Line
	6200 8550 6200 8600
Wire Wire Line
	6200 8600 6350 8600
Wire Wire Line
	6350 8600 6350 8550
Wire Wire Line
	6250 8700 6250 8600
Connection ~ 6250 8600
Wire Wire Line
	4450 6850 4650 6850
Wire Wire Line
	6600 5150 6550 5150
Connection ~ 6550 5150
Wire Wire Line
	7000 5150 6900 5150
Wire Wire Line
	5500 2750 5500 5800
Wire Wire Line
	5700 4400 5650 4400
Connection ~ 5650 4400
Wire Wire Line
	5450 4400 5500 4400
Connection ~ 5500 4400
Wire Wire Line
	6000 3250 6000 4400
Wire Wire Line
	5150 4400 5150 4250
Wire Wire Line
	5150 4250 6000 4250
Connection ~ 6000 4250
$Comp
L GND #PWR018
U 1 1 57028DB4
P 6950 4150
F 0 "#PWR018" H 6950 3900 50  0001 C CNN
F 1 "GND" H 6950 4000 50  0000 C CNN
F 2 "" H 6950 4150 50  0000 C CNN
F 3 "" H 6950 4150 50  0000 C CNN
	1    6950 4150
	1    0    0    -1  
$EndComp
Wire Wire Line
	6950 2650 6950 4150
Wire Wire Line
	5650 2950 5650 5800
$Comp
L GND #PWR019
U 1 1 5702A735
P 8850 5050
F 0 "#PWR019" H 8850 4800 50  0001 C CNN
F 1 "GND" H 8850 4900 50  0000 C CNN
F 2 "" H 8850 5050 50  0000 C CNN
F 3 "" H 8850 5050 50  0000 C CNN
	1    8850 5050
	1    0    0    -1  
$EndComp
Wire Wire Line
	8850 4750 8850 5050
$Comp
L VCC #PWR020
U 1 1 5702A860
P 8400 5050
F 0 "#PWR020" H 8400 4900 50  0001 C CNN
F 1 "VCC" H 8400 5200 50  0000 C CNN
F 2 "" H 8400 5050 50  0000 C CNN
F 3 "" H 8400 5050 50  0000 C CNN
	1    8400 5050
	-1   0    0    1   
$EndComp
Wire Wire Line
	8700 5000 8850 5000
Connection ~ 8850 5000
Wire Wire Line
	8400 5000 8500 5000
Wire Wire Line
	8400 4750 8400 5050
Connection ~ 8400 5000
Wire Wire Line
	7100 8800 9100 8800
Wire Wire Line
	9100 8800 9100 8600
Wire Wire Line
	9100 8600 9650 8600
$Comp
L GND #PWR021
U 1 1 5702B311
P 8200 8650
F 0 "#PWR021" H 8200 8400 50  0001 C CNN
F 1 "GND" H 8200 8500 50  0000 C CNN
F 2 "" H 8200 8650 50  0000 C CNN
F 3 "" H 8200 8650 50  0000 C CNN
	1    8200 8650
	0    -1   -1   0   
$EndComp
Wire Wire Line
	8200 8650 8050 8650
$Comp
L D_Small D28
U 1 1 5702BD0C
P 8600 5000
F 0 "D28" H 8550 5080 50  0000 L CNN
F 1 "D_Small" H 8450 4920 50  0000 L CNN
F 2 "Diodes_SMD:SMA_Standard" V 8600 5000 50  0001 C CNN
F 3 "" V 8600 5000 50  0000 C CNN
	1    8600 5000
	1    0    0    -1  
$EndComp
$Comp
L CONN_01X02 P6
U 1 1 5702D8FA
P 8600 4550
F 0 "P6" H 8600 4700 50  0000 C CNN
F 1 "CONN_PWR_1V" V 8700 4550 50  0000 C CNN
F 2 "Pin_Headers:Pin_Header_Straight_1x02" H 8600 4550 50  0001 C CNN
F 3 "" H 8600 4550 50  0000 C CNN
	1    8600 4550
	0    -1   -1   0   
$EndComp
Wire Wire Line
	8400 4750 8550 4750
Wire Wire Line
	8850 4750 8650 4750
Wire Wire Line
	5500 2750 6150 2750
Wire Wire Line
	6150 2750 6150 2650
Wire Wire Line
	5650 2950 6350 2950
Wire Wire Line
	6550 3150 6450 3150
Wire Wire Line
	6450 3150 6450 2650
$Comp
L CONN_01X05 P1
U 1 1 5702E3C4
P 6350 2450
F 0 "P1" H 6350 2750 50  0000 C CNN
F 1 "CONN_01X05" V 6450 2450 50  0000 C CNN
F 2 "Pin_Headers:Pin_Header_Straight_1x05" H 6350 2450 50  0001 C CNN
F 3 "" H 6350 2450 50  0000 C CNN
	1    6350 2450
	0    -1   -1   0   
$EndComp
Wire Wire Line
	6950 2650 6550 2650
Wire Wire Line
	6350 2950 6350 2650
Wire Wire Line
	6250 2650 6250 3250
Wire Wire Line
	6250 3250 6000 3250
$EndSCHEMATC
